module belajar-go

go 1.17

require gobot.io/x/gobot v1.16.0

require (
	github.com/gofrs/uuid v4.0.0+incompatible // indirect
	github.com/hashicorp/errwrap v1.0.0 // indirect
	github.com/hashicorp/go-multierror v1.0.0 // indirect
)
